<define-tag pagetitle>DLA-874-1 jbig2dec</define-tag>
<define-tag report_date>2017-3-27</define-tag>
<define-tag secrefs>CVE-2016-9601</define-tag>
<define-tag packages>jbig2dec</define-tag>
<define-tag isvulnerable>yes</define-tag>
<define-tag fixed>yes</define-tag>
<define-tag fixed-section>no</define-tag>

#use wml::debian::security

