<define-tag pagetitle>DLA-921-1 slurm-llnl</define-tag>
<define-tag report_date>2017-4-27</define-tag>
<define-tag secrefs>CVE-2016-10030 Bug#850491</define-tag>
<define-tag packages>slurm-llnl</define-tag>
<define-tag isvulnerable>yes</define-tag>
<define-tag fixed>yes</define-tag>
<define-tag fixed-section>no</define-tag>

#use wml::debian::security

