<define-tag pagetitle>DLA-1467-1 ruby-zip</define-tag>
<define-tag report_date>2018-8-15</define-tag>
<define-tag secrefs>CVE-2018-1000544 Bug#902720</define-tag>
<define-tag packages>ruby-zip</define-tag>
<define-tag isvulnerable>yes</define-tag>
<define-tag fixed>yes</define-tag>
<define-tag fixed-section>no</define-tag>

#use wml::debian::security

