<define-tag pagetitle>DLA-1461-1 clamav</define-tag>
<define-tag report_date>2018-8-20</define-tag>
<define-tag secrefs>CVE-2018-0360 CVE-2018-0361 Bug#902601 Bug#903896 Bug#905044</define-tag>
<define-tag packages>clamav</define-tag>
<define-tag isvulnerable>yes</define-tag>
<define-tag fixed>yes</define-tag>
<define-tag fixed-section>no</define-tag>

#use wml::debian::security

