<define-tag pagetitle>DSA-4391-1 firefox-esr</define-tag>
<define-tag report_date>2019-2-14</define-tag>
<define-tag secrefs>CVE-2018-18356 CVE-2019-5785</define-tag>
<define-tag packages>firefox-esr</define-tag>
<define-tag isvulnerable>yes</define-tag>
<define-tag fixed>yes</define-tag>
<define-tag fixed-section>no</define-tag>

#use wml::debian::security



</dl>
