<define-tag pagetitle>DLA-1980-1 wordpress</define-tag>
<define-tag report_date>2019-11-05</define-tag>
<define-tag secrefs>CVE-2019-17669 CVE-2019-17670 CVE-2019-17671 CVE-2019-17675</define-tag>
<define-tag packages>wordpress</define-tag>
<define-tag isvulnerable>yes</define-tag>
<define-tag fixed>yes</define-tag>
<define-tag fixed-section>no</define-tag>

#use wml::debian::security

