<define-tag pagetitle>DLA-1859-1 bind9</define-tag>
<define-tag report_date>2019-7-21</define-tag>
<define-tag secrefs>CVE-2018-5743</define-tag>
<define-tag packages>bind9</define-tag>
<define-tag isvulnerable>yes</define-tag>
<define-tag fixed>yes</define-tag>
<define-tag fixed-section>no</define-tag>

#use wml::debian::security

