<define-tag pagetitle>DLA-2030-1 jackson-databind</define-tag>
<define-tag report_date>2019-12-10</define-tag>
<define-tag secrefs>CVE-2019-17267 CVE-2019-17531</define-tag>
<define-tag packages>jackson-databind</define-tag>
<define-tag isvulnerable>yes</define-tag>
<define-tag fixed>yes</define-tag>
<define-tag fixed-section>no</define-tag>

#use wml::debian::security

