<define-tag pagetitle>DLA-1633-1 sqlite3</define-tag>
<define-tag report_date>2019-1-11</define-tag>
<define-tag secrefs>CVE-2017-2518 CVE-2017-2519 CVE-2017-2520 CVE-2017-10989 CVE-2018-8740 Bug#867618 Bug#893195</define-tag>
<define-tag packages>sqlite3</define-tag>
<define-tag isvulnerable>yes</define-tag>
<define-tag fixed>yes</define-tag>
<define-tag fixed-section>no</define-tag>

#use wml::debian::security

