<define-tag pagetitle>DLA-490-1 bozohttpd</define-tag>
<define-tag report_date>2016-5-26</define-tag>
<define-tag secrefs>CVE-2014-5015 CVE-2015-8212 Bug#755197</define-tag>
<define-tag packages>bozohttpd</define-tag>
<define-tag isvulnerable>yes</define-tag>
<define-tag fixed>yes</define-tag>
<define-tag fixed-section>no</define-tag>

#use wml::debian::security

