<define-tag pagetitle>DLA-541-1 libvirt</define-tag>
<define-tag report_date>2016-7-1</define-tag>
<define-tag secrefs>CVE-2016-5008</define-tag>
<define-tag packages>libvirt</define-tag>
<define-tag isvulnerable>yes</define-tag>
<define-tag fixed>yes</define-tag>
<define-tag fixed-section>no</define-tag>

#use wml::debian::security

